\relax 
\providecommand\hyper@newdestlabel[2]{}
\providecommand\HyperFirstAtBeginDocument{\AtBeginDocument}
\HyperFirstAtBeginDocument{\ifx\hyper@anchor\@undefined
\global\let\oldcontentsline\contentsline
\gdef\contentsline#1#2#3#4{\oldcontentsline{#1}{#2}{#3}}
\global\let\oldnewlabel\newlabel
\gdef\newlabel#1#2{\newlabelxx{#1}#2}
\gdef\newlabelxx#1#2#3#4#5#6{\oldnewlabel{#1}{{#2}{#3}}}
\AtEndDocument{\ifx\hyper@anchor\@undefined
\let\contentsline\oldcontentsline
\let\newlabel\oldnewlabel
\fi}
\fi}
\global\let\hyper@last\relax 
\gdef\HyperFirstAtBeginDocument#1{#1}
\providecommand\HyField@AuxAddToFields[1]{}
\providecommand\HyField@AuxAddToCoFields[2]{}
\@writefile{toc}{\contentsline {section}{Overal Details (as of April 2021)}{1}{section*.1}}
\@writefile{toc}{\contentsline {section}{Publications in peer-reviewed journals}{1}{section*.2}}
\gdef\etaremune@i{30}
\gdef\etaremune@ii{5}
\gdef\etaremune@iii{5}
\gdef\etaremune@iv{2}
\@writefile{toc}{\contentsline {section}{Articles under review in peer-reviewed journals}{3}{section*.3}}
\@writefile{toc}{\contentsline {section}{Articles in preparation}{3}{section*.4}}
\@writefile{toc}{\contentsline {section}{Reports}{3}{section*.5}}
\gdef\etaremune@v{2}
\gdef\etaremune@vi{10}
\@writefile{toc}{\contentsline {section}{Peer-reviewed conference proceedings}{4}{section*.6}}
\@writefile{toc}{\contentsline {section}{Selected oral contributions to conferences}{4}{section*.7}}
\newlabel{LastPage}{{}{4}{}{page.4}{}}
\xdef\lastpage@lastpage{4}
\xdef\lastpage@lastpageHy{4}
